-- Merging decision tree log ---
manifest
ADDED from C:\Depot\daisy\UI\app\src\main\AndroidManifest.xml:2:1-38:12
INJECTED from C:\Depot\daisy\UI\app\src\main\AndroidManifest.xml:2:1-38:12
INJECTED from C:\Depot\daisy\UI\app\src\main\AndroidManifest.xml:2:1-38:12
INJECTED from C:\Depot\daisy\UI\app\src\main\AndroidManifest.xml:2:1-38:12
MERGED from [com.android.support:appcompat-v7:28.0.0] C:\Users\USER\.gradle\caches\transforms-1\files-1.1\appcompat-v7-28.0.0.aar\0088320d96d990f4766e413a0dccc5d3\AndroidManifest.xml:17:1-22:12
MERGED from [com.android.support.constraint:constraint-layout:1.1.3] C:\Users\USER\.gradle\caches\transforms-1\files-1.1\constraint-layout-1.1.3.aar\3d89375f5a506b38de5e955d35df56f9\AndroidManifest.xml:2:1-11:12
MERGED from [com.android.support:support-fragment:28.0.0] C:\Users\USER\.gradle\caches\transforms-1\files-1.1\support-fragment-28.0.0.aar\e2418b8c595aa9914bbe74947095a087\AndroidManifest.xml:17:1-22:12
MERGED from [com.android.support:animated-vector-drawable:28.0.0] C:\Users\USER\.gradle\caches\transforms-1\files-1.1\animated-vector-drawable-28.0.0.aar\dcfcf9805c0aa1b08c6ebbd070609657\AndroidManifest.xml:17:1-22:12
MERGED from [com.android.support:support-core-ui:28.0.0] C:\Users\USER\.gradle\caches\transforms-1\files-1.1\support-core-ui-28.0.0.aar\1959b8ad09f040dc3b8b5e392fa21f4b\AndroidManifest.xml:17:1-22:12
MERGED from [com.android.support:support-core-utils:28.0.0] C:\Users\USER\.gradle\caches\transforms-1\files-1.1\support-core-utils-28.0.0.aar\55229c015dacadea1835d04ebde8e3d5\AndroidManifest.xml:17:1-22:12
MERGED from [com.android.support:support-vector-drawable:28.0.0] C:\Users\USER\.gradle\caches\transforms-1\files-1.1\support-vector-drawable-28.0.0.aar\d86d5c80e4d013b63399ab201141c6f3\AndroidManifest.xml:17:1-22:12
MERGED from [com.android.support:loader:28.0.0] C:\Users\USER\.gradle\caches\transforms-1\files-1.1\loader-28.0.0.aar\0bc1435429e41bbd8c8a8745de2b3d1a\AndroidManifest.xml:17:1-22:12
MERGED from [com.android.support:viewpager:28.0.0] C:\Users\USER\.gradle\caches\transforms-1\files-1.1\viewpager-28.0.0.aar\3662e8e0e20b163360d8efde399f8fce\AndroidManifest.xml:17:1-22:12
MERGED from [com.android.support:coordinatorlayout:28.0.0] C:\Users\USER\.gradle\caches\transforms-1\files-1.1\coordinatorlayout-28.0.0.aar\67a9c43dbd1dc14ef9271131b6826551\AndroidManifest.xml:17:1-22:12
MERGED from [com.android.support:drawerlayout:28.0.0] C:\Users\USER\.gradle\caches\transforms-1\files-1.1\drawerlayout-28.0.0.aar\b69cc5cba9f1caf4d6c81b77a89865e4\AndroidManifest.xml:17:1-22:12
MERGED from [com.android.support:slidingpanelayout:28.0.0] C:\Users\USER\.gradle\caches\transforms-1\files-1.1\slidingpanelayout-28.0.0.aar\db4d2a2a5b5e37f9e9b53827063879cc\AndroidManifest.xml:17:1-22:12
MERGED from [com.android.support:customview:28.0.0] C:\Users\USER\.gradle\caches\transforms-1\files-1.1\customview-28.0.0.aar\3fe759038f220b189419c976678676a6\AndroidManifest.xml:17:1-22:12
MERGED from [com.android.support:swiperefreshlayout:28.0.0] C:\Users\USER\.gradle\caches\transforms-1\files-1.1\swiperefreshlayout-28.0.0.aar\052fd760fdf2ee6ab6394e0a14101239\AndroidManifest.xml:17:1-22:12
MERGED from [com.android.support:asynclayoutinflater:28.0.0] C:\Users\USER\.gradle\caches\transforms-1\files-1.1\asynclayoutinflater-28.0.0.aar\620cb286e3edf909c454a2cd3f9aacd6\AndroidManifest.xml:17:1-22:12
MERGED from [com.android.support:support-compat:28.0.0] C:\Users\USER\.gradle\caches\transforms-1\files-1.1\support-compat-28.0.0.aar\125b5b1c1e583001597df9af1ae15049\AndroidManifest.xml:17:1-24:12
MERGED from [com.android.support:versionedparcelable:28.0.0] C:\Users\USER\.gradle\caches\transforms-1\files-1.1\versionedparcelable-28.0.0.aar\469412f1d721dd046b8d0039ee01fe69\AndroidManifest.xml:17:1-25:12
MERGED from [com.android.support:cursoradapter:28.0.0] C:\Users\USER\.gradle\caches\transforms-1\files-1.1\cursoradapter-28.0.0.aar\3484795a9c7989f30b7606fb6f53f14d\AndroidManifest.xml:17:1-22:12
MERGED from [android.arch.lifecycle:runtime:1.1.1] C:\Users\USER\.gradle\caches\transforms-1\files-1.1\runtime-1.1.1.aar\ca3065ba33ffa9a12e0d7d76c78d16b6\AndroidManifest.xml:17:1-22:12
MERGED from [com.android.support:documentfile:28.0.0] C:\Users\USER\.gradle\caches\transforms-1\files-1.1\documentfile-28.0.0.aar\3fe641edd13bebb8fcb642c403ae44cc\AndroidManifest.xml:17:1-22:12
MERGED from [com.android.support:localbroadcastmanager:28.0.0] C:\Users\USER\.gradle\caches\transforms-1\files-1.1\localbroadcastmanager-28.0.0.aar\9b29a54569d9408fa9b7f4e431ffa8cc\AndroidManifest.xml:17:1-22:12
MERGED from [com.android.support:print:28.0.0] C:\Users\USER\.gradle\caches\transforms-1\files-1.1\print-28.0.0.aar\eabce0ec6fa497727e78c36c37e90639\AndroidManifest.xml:17:1-22:12
MERGED from [android.arch.lifecycle:viewmodel:1.1.1] C:\Users\USER\.gradle\caches\transforms-1\files-1.1\viewmodel-1.1.1.aar\cdab2efed9274a9ba3be9307442808af\AndroidManifest.xml:17:1-22:12
MERGED from [android.arch.lifecycle:livedata:1.1.1] C:\Users\USER\.gradle\caches\transforms-1\files-1.1\livedata-1.1.1.aar\9bd3435236247318c796cbea51ff388e\AndroidManifest.xml:17:1-22:12
MERGED from [android.arch.lifecycle:livedata-core:1.1.1] C:\Users\USER\.gradle\caches\transforms-1\files-1.1\livedata-core-1.1.1.aar\3476e8e81b4089c0f2b9706e275dbf58\AndroidManifest.xml:17:1-22:12
MERGED from [android.arch.core:runtime:1.1.1] C:\Users\USER\.gradle\caches\transforms-1\files-1.1\runtime-1.1.1.aar\f0566c4be9d93eb6111a1306c6e82efb\AndroidManifest.xml:17:1-22:12
MERGED from [com.android.support:interpolator:28.0.0] C:\Users\USER\.gradle\caches\transforms-1\files-1.1\interpolator-28.0.0.aar\7d48f43440b867fce6a37d6245dfb914\AndroidManifest.xml:17:1-22:12
INJECTED from C:\Depot\daisy\UI\app\src\main\AndroidManifest.xml:2:1-38:12
INJECTED from C:\Depot\daisy\UI\app\src\main\AndroidManifest.xml:2:1-38:12
INJECTED from C:\Depot\daisy\UI\app\src\main\AndroidManifest.xml:2:1-38:12
	package
		ADDED from C:\Depot\daisy\UI\app\src\main\AndroidManifest.xml:3:5-38
		INJECTED from C:\Depot\daisy\UI\app\src\main\AndroidManifest.xml
		INJECTED from C:\Depot\daisy\UI\app\src\main\AndroidManifest.xml
	android:versionName
		INJECTED from C:\Depot\daisy\UI\app\src\main\AndroidManifest.xml
		ADDED from C:\Depot\daisy\UI\app\src\main\AndroidManifest.xml:2:1-38:12
		INJECTED from C:\Depot\daisy\UI\app\src\main\AndroidManifest.xml
	android:versionCode
		INJECTED from C:\Depot\daisy\UI\app\src\main\AndroidManifest.xml
		ADDED from C:\Depot\daisy\UI\app\src\main\AndroidManifest.xml:2:1-38:12
		INJECTED from C:\Depot\daisy\UI\app\src\main\AndroidManifest.xml
	xmlns:android
		ADDED from C:\Depot\daisy\UI\app\src\main\AndroidManifest.xml:2:11-69
uses-permission#android.permission.READ_PHONE_STATE
ADDED from C:\Depot\daisy\UI\app\src\main\AndroidManifest.xml:5:5-75
	android:name
		ADDED from C:\Depot\daisy\UI\app\src\main\AndroidManifest.xml:5:22-72
uses-permission#android.permission.SEND_SMS
ADDED from C:\Depot\daisy\UI\app\src\main\AndroidManifest.xml:6:5-67
	android:name
		ADDED from C:\Depot\daisy\UI\app\src\main\AndroidManifest.xml:6:22-64
application
ADDED from C:\Depot\daisy\UI\app\src\main\AndroidManifest.xml:8:5-36:19
MERGED from [com.android.support.constraint:constraint-layout:1.1.3] C:\Users\USER\.gradle\caches\transforms-1\files-1.1\constraint-layout-1.1.3.aar\3d89375f5a506b38de5e955d35df56f9\AndroidManifest.xml:9:5-20
MERGED from [com.android.support.constraint:constraint-layout:1.1.3] C:\Users\USER\.gradle\caches\transforms-1\files-1.1\constraint-layout-1.1.3.aar\3d89375f5a506b38de5e955d35df56f9\AndroidManifest.xml:9:5-20
MERGED from [com.android.support:support-compat:28.0.0] C:\Users\USER\.gradle\caches\transforms-1\files-1.1\support-compat-28.0.0.aar\125b5b1c1e583001597df9af1ae15049\AndroidManifest.xml:22:5-94
MERGED from [com.android.support:support-compat:28.0.0] C:\Users\USER\.gradle\caches\transforms-1\files-1.1\support-compat-28.0.0.aar\125b5b1c1e583001597df9af1ae15049\AndroidManifest.xml:22:5-94
MERGED from [com.android.support:versionedparcelable:28.0.0] C:\Users\USER\.gradle\caches\transforms-1\files-1.1\versionedparcelable-28.0.0.aar\469412f1d721dd046b8d0039ee01fe69\AndroidManifest.xml:22:5-23:19
MERGED from [com.android.support:versionedparcelable:28.0.0] C:\Users\USER\.gradle\caches\transforms-1\files-1.1\versionedparcelable-28.0.0.aar\469412f1d721dd046b8d0039ee01fe69\AndroidManifest.xml:22:5-23:19
	android:appComponentFactory
		ADDED from [com.android.support:support-compat:28.0.0] C:\Users\USER\.gradle\caches\transforms-1\files-1.1\support-compat-28.0.0.aar\125b5b1c1e583001597df9af1ae15049\AndroidManifest.xml:22:18-91
	android:supportsRtl
		ADDED from C:\Depot\daisy\UI\app\src\main\AndroidManifest.xml:13:9-35
	android:label
		ADDED from C:\Depot\daisy\UI\app\src\main\AndroidManifest.xml:11:9-41
	android:roundIcon
		ADDED from C:\Depot\daisy\UI\app\src\main\AndroidManifest.xml:12:9-54
	android:icon
		ADDED from C:\Depot\daisy\UI\app\src\main\AndroidManifest.xml:10:9-43
	android:allowBackup
		ADDED from C:\Depot\daisy\UI\app\src\main\AndroidManifest.xml:9:9-35
	android:theme
		ADDED from C:\Depot\daisy\UI\app\src\main\AndroidManifest.xml:14:9-40
activity#test1.scit.ac.ke.newapp.JobDescription
ADDED from C:\Depot\daisy\UI\app\src\main\AndroidManifest.xml:15:9-61
	android:name
		ADDED from C:\Depot\daisy\UI\app\src\main\AndroidManifest.xml:15:19-49
activity#test1.scit.ac.ke.newapp.Link_Up_App_Init_images
ADDED from C:\Depot\daisy\UI\app\src\main\AndroidManifest.xml:16:9-61
	android:name
		ADDED from C:\Depot\daisy\UI\app\src\main\AndroidManifest.xml:16:19-58
activity#test1.scit.ac.ke.newapp.Splash_screen
ADDED from C:\Depot\daisy\UI\app\src\main\AndroidManifest.xml:17:9-51
	android:name
		ADDED from C:\Depot\daisy\UI\app\src\main\AndroidManifest.xml:17:19-48
receiver#test1.scit.ac.ke.newapp.SmsReceiver
ADDED from C:\Depot\daisy\UI\app\src\main\AndroidManifest.xml:19:9-26:20
	android:enabled
		ADDED from C:\Depot\daisy\UI\app\src\main\AndroidManifest.xml:21:13-35
	android:exported
		ADDED from C:\Depot\daisy\UI\app\src\main\AndroidManifest.xml:22:13-36
	android:name
		ADDED from C:\Depot\daisy\UI\app\src\main\AndroidManifest.xml:20:13-40
intent-filter#action:name:android.provider.Telephony.SMS_RECEIVED
ADDED from C:\Depot\daisy\UI\app\src\main\AndroidManifest.xml:23:13-25:29
action#android.provider.Telephony.SMS_RECEIVED
ADDED from C:\Depot\daisy\UI\app\src\main\AndroidManifest.xml:24:17-82
	android:name
		ADDED from C:\Depot\daisy\UI\app\src\main\AndroidManifest.xml:24:25-79
activity#test1.scit.ac.ke.newapp.MessageActivity
ADDED from C:\Depot\daisy\UI\app\src\main\AndroidManifest.xml:28:9-53
	android:name
		ADDED from C:\Depot\daisy\UI\app\src\main\AndroidManifest.xml:28:19-50
activity#test1.scit.ac.ke.newapp.MainActivity
ADDED from C:\Depot\daisy\UI\app\src\main\AndroidManifest.xml:29:9-35:20
	android:name
		ADDED from C:\Depot\daisy\UI\app\src\main\AndroidManifest.xml:29:19-47
intent-filter#action:name:android.intent.action.MAIN+category:name:android.intent.category.LAUNCHER
ADDED from C:\Depot\daisy\UI\app\src\main\AndroidManifest.xml:30:13-34:29
action#android.intent.action.MAIN
ADDED from C:\Depot\daisy\UI\app\src\main\AndroidManifest.xml:31:17-69
	android:name
		ADDED from C:\Depot\daisy\UI\app\src\main\AndroidManifest.xml:31:25-66
category#android.intent.category.LAUNCHER
ADDED from C:\Depot\daisy\UI\app\src\main\AndroidManifest.xml:33:17-77
	android:name
		ADDED from C:\Depot\daisy\UI\app\src\main\AndroidManifest.xml:33:27-74
uses-sdk
INJECTED from C:\Depot\daisy\UI\app\src\main\AndroidManifest.xml reason: use-sdk injection requested
INJECTED from C:\Depot\daisy\UI\app\src\main\AndroidManifest.xml
INJECTED from C:\Depot\daisy\UI\app\src\main\AndroidManifest.xml
MERGED from [com.android.support:appcompat-v7:28.0.0] C:\Users\USER\.gradle\caches\transforms-1\files-1.1\appcompat-v7-28.0.0.aar\0088320d96d990f4766e413a0dccc5d3\AndroidManifest.xml:20:5-44
MERGED from [com.android.support:appcompat-v7:28.0.0] C:\Users\USER\.gradle\caches\transforms-1\files-1.1\appcompat-v7-28.0.0.aar\0088320d96d990f4766e413a0dccc5d3\AndroidManifest.xml:20:5-44
MERGED from [com.android.support.constraint:constraint-layout:1.1.3] C:\Users\USER\.gradle\caches\transforms-1\files-1.1\constraint-layout-1.1.3.aar\3d89375f5a506b38de5e955d35df56f9\AndroidManifest.xml:5:5-7:41
MERGED from [com.android.support.constraint:constraint-layout:1.1.3] C:\Users\USER\.gradle\caches\transforms-1\files-1.1\constraint-layout-1.1.3.aar\3d89375f5a506b38de5e955d35df56f9\AndroidManifest.xml:5:5-7:41
MERGED from [com.android.support:support-fragment:28.0.0] C:\Users\USER\.gradle\caches\transforms-1\files-1.1\support-fragment-28.0.0.aar\e2418b8c595aa9914bbe74947095a087\AndroidManifest.xml:20:5-44
MERGED from [com.android.support:support-fragment:28.0.0] C:\Users\USER\.gradle\caches\transforms-1\files-1.1\support-fragment-28.0.0.aar\e2418b8c595aa9914bbe74947095a087\AndroidManifest.xml:20:5-44
MERGED from [com.android.support:animated-vector-drawable:28.0.0] C:\Users\USER\.gradle\caches\transforms-1\files-1.1\animated-vector-drawable-28.0.0.aar\dcfcf9805c0aa1b08c6ebbd070609657\AndroidManifest.xml:20:5-44
MERGED from [com.android.support:animated-vector-drawable:28.0.0] C:\Users\USER\.gradle\caches\transforms-1\files-1.1\animated-vector-drawable-28.0.0.aar\dcfcf9805c0aa1b08c6ebbd070609657\AndroidManifest.xml:20:5-44
MERGED from [com.android.support:support-core-ui:28.0.0] C:\Users\USER\.gradle\caches\transforms-1\files-1.1\support-core-ui-28.0.0.aar\1959b8ad09f040dc3b8b5e392fa21f4b\AndroidManifest.xml:20:5-44
MERGED from [com.android.support:support-core-ui:28.0.0] C:\Users\USER\.gradle\caches\transforms-1\files-1.1\support-core-ui-28.0.0.aar\1959b8ad09f040dc3b8b5e392fa21f4b\AndroidManifest.xml:20:5-44
MERGED from [com.android.support:support-core-utils:28.0.0] C:\Users\USER\.gradle\caches\transforms-1\files-1.1\support-core-utils-28.0.0.aar\55229c015dacadea1835d04ebde8e3d5\AndroidManifest.xml:20:5-44
MERGED from [com.android.support:support-core-utils:28.0.0] C:\Users\USER\.gradle\caches\transforms-1\files-1.1\support-core-utils-28.0.0.aar\55229c015dacadea1835d04ebde8e3d5\AndroidManifest.xml:20:5-44
MERGED from [com.android.support:support-vector-drawable:28.0.0] C:\Users\USER\.gradle\caches\transforms-1\files-1.1\support-vector-drawable-28.0.0.aar\d86d5c80e4d013b63399ab201141c6f3\AndroidManifest.xml:20:5-44
MERGED from [com.android.support:support-vector-drawable:28.0.0] C:\Users\USER\.gradle\caches\transforms-1\files-1.1\support-vector-drawable-28.0.0.aar\d86d5c80e4d013b63399ab201141c6f3\AndroidManifest.xml:20:5-44
MERGED from [com.android.support:loader:28.0.0] C:\Users\USER\.gradle\caches\transforms-1\files-1.1\loader-28.0.0.aar\0bc1435429e41bbd8c8a8745de2b3d1a\AndroidManifest.xml:20:5-44
MERGED from [com.android.support:loader:28.0.0] C:\Users\USER\.gradle\caches\transforms-1\files-1.1\loader-28.0.0.aar\0bc1435429e41bbd8c8a8745de2b3d1a\AndroidManifest.xml:20:5-44
MERGED from [com.android.support:viewpager:28.0.0] C:\Users\USER\.gradle\caches\transforms-1\files-1.1\viewpager-28.0.0.aar\3662e8e0e20b163360d8efde399f8fce\AndroidManifest.xml:20:5-44
MERGED from [com.android.support:viewpager:28.0.0] C:\Users\USER\.gradle\caches\transforms-1\files-1.1\viewpager-28.0.0.aar\3662e8e0e20b163360d8efde399f8fce\AndroidManifest.xml:20:5-44
MERGED from [com.android.support:coordinatorlayout:28.0.0] C:\Users\USER\.gradle\caches\transforms-1\files-1.1\coordinatorlayout-28.0.0.aar\67a9c43dbd1dc14ef9271131b6826551\AndroidManifest.xml:20:5-44
MERGED from [com.android.support:coordinatorlayout:28.0.0] C:\Users\USER\.gradle\caches\transforms-1\files-1.1\coordinatorlayout-28.0.0.aar\67a9c43dbd1dc14ef9271131b6826551\AndroidManifest.xml:20:5-44
MERGED from [com.android.support:drawerlayout:28.0.0] C:\Users\USER\.gradle\caches\transforms-1\files-1.1\drawerlayout-28.0.0.aar\b69cc5cba9f1caf4d6c81b77a89865e4\AndroidManifest.xml:20:5-44
MERGED from [com.android.support:drawerlayout:28.0.0] C:\Users\USER\.gradle\caches\transforms-1\files-1.1\drawerlayout-28.0.0.aar\b69cc5cba9f1caf4d6c81b77a89865e4\AndroidManifest.xml:20:5-44
MERGED from [com.android.support:slidingpanelayout:28.0.0] C:\Users\USER\.gradle\caches\transforms-1\files-1.1\slidingpanelayout-28.0.0.aar\db4d2a2a5b5e37f9e9b53827063879cc\AndroidManifest.xml:20:5-44
MERGED from [com.android.support:slidingpanelayout:28.0.0] C:\Users\USER\.gradle\caches\transforms-1\files-1.1\slidingpanelayout-28.0.0.aar\db4d2a2a5b5e37f9e9b53827063879cc\AndroidManifest.xml:20:5-44
MERGED from [com.android.support:customview:28.0.0] C:\Users\USER\.gradle\caches\transforms-1\files-1.1\customview-28.0.0.aar\3fe759038f220b189419c976678676a6\AndroidManifest.xml:20:5-44
MERGED from [com.android.support:customview:28.0.0] C:\Users\USER\.gradle\caches\transforms-1\files-1.1\customview-28.0.0.aar\3fe759038f220b189419c976678676a6\AndroidManifest.xml:20:5-44
MERGED from [com.android.support:swiperefreshlayout:28.0.0] C:\Users\USER\.gradle\caches\transforms-1\files-1.1\swiperefreshlayout-28.0.0.aar\052fd760fdf2ee6ab6394e0a14101239\AndroidManifest.xml:20:5-44
MERGED from [com.android.support:swiperefreshlayout:28.0.0] C:\Users\USER\.gradle\caches\transforms-1\files-1.1\swiperefreshlayout-28.0.0.aar\052fd760fdf2ee6ab6394e0a14101239\AndroidManifest.xml:20:5-44
MERGED from [com.android.support:asynclayoutinflater:28.0.0] C:\Users\USER\.gradle\caches\transforms-1\files-1.1\asynclayoutinflater-28.0.0.aar\620cb286e3edf909c454a2cd3f9aacd6\AndroidManifest.xml:20:5-44
MERGED from [com.android.support:asynclayoutinflater:28.0.0] C:\Users\USER\.gradle\caches\transforms-1\files-1.1\asynclayoutinflater-28.0.0.aar\620cb286e3edf909c454a2cd3f9aacd6\AndroidManifest.xml:20:5-44
MERGED from [com.android.support:support-compat:28.0.0] C:\Users\USER\.gradle\caches\transforms-1\files-1.1\support-compat-28.0.0.aar\125b5b1c1e583001597df9af1ae15049\AndroidManifest.xml:20:5-44
MERGED from [com.android.support:support-compat:28.0.0] C:\Users\USER\.gradle\caches\transforms-1\files-1.1\support-compat-28.0.0.aar\125b5b1c1e583001597df9af1ae15049\AndroidManifest.xml:20:5-44
MERGED from [com.android.support:versionedparcelable:28.0.0] C:\Users\USER\.gradle\caches\transforms-1\files-1.1\versionedparcelable-28.0.0.aar\469412f1d721dd046b8d0039ee01fe69\AndroidManifest.xml:20:5-44
MERGED from [com.android.support:versionedparcelable:28.0.0] C:\Users\USER\.gradle\caches\transforms-1\files-1.1\versionedparcelable-28.0.0.aar\469412f1d721dd046b8d0039ee01fe69\AndroidManifest.xml:20:5-44
MERGED from [com.android.support:cursoradapter:28.0.0] C:\Users\USER\.gradle\caches\transforms-1\files-1.1\cursoradapter-28.0.0.aar\3484795a9c7989f30b7606fb6f53f14d\AndroidManifest.xml:20:5-44
MERGED from [com.android.support:cursoradapter:28.0.0] C:\Users\USER\.gradle\caches\transforms-1\files-1.1\cursoradapter-28.0.0.aar\3484795a9c7989f30b7606fb6f53f14d\AndroidManifest.xml:20:5-44
MERGED from [android.arch.lifecycle:runtime:1.1.1] C:\Users\USER\.gradle\caches\transforms-1\files-1.1\runtime-1.1.1.aar\ca3065ba33ffa9a12e0d7d76c78d16b6\AndroidManifest.xml:20:5-44
MERGED from [android.arch.lifecycle:runtime:1.1.1] C:\Users\USER\.gradle\caches\transforms-1\files-1.1\runtime-1.1.1.aar\ca3065ba33ffa9a12e0d7d76c78d16b6\AndroidManifest.xml:20:5-44
MERGED from [com.android.support:documentfile:28.0.0] C:\Users\USER\.gradle\caches\transforms-1\files-1.1\documentfile-28.0.0.aar\3fe641edd13bebb8fcb642c403ae44cc\AndroidManifest.xml:20:5-44
MERGED from [com.android.support:documentfile:28.0.0] C:\Users\USER\.gradle\caches\transforms-1\files-1.1\documentfile-28.0.0.aar\3fe641edd13bebb8fcb642c403ae44cc\AndroidManifest.xml:20:5-44
MERGED from [com.android.support:localbroadcastmanager:28.0.0] C:\Users\USER\.gradle\caches\transforms-1\files-1.1\localbroadcastmanager-28.0.0.aar\9b29a54569d9408fa9b7f4e431ffa8cc\AndroidManifest.xml:20:5-44
MERGED from [com.android.support:localbroadcastmanager:28.0.0] C:\Users\USER\.gradle\caches\transforms-1\files-1.1\localbroadcastmanager-28.0.0.aar\9b29a54569d9408fa9b7f4e431ffa8cc\AndroidManifest.xml:20:5-44
MERGED from [com.android.support:print:28.0.0] C:\Users\USER\.gradle\caches\transforms-1\files-1.1\print-28.0.0.aar\eabce0ec6fa497727e78c36c37e90639\AndroidManifest.xml:20:5-44
MERGED from [com.android.support:print:28.0.0] C:\Users\USER\.gradle\caches\transforms-1\files-1.1\print-28.0.0.aar\eabce0ec6fa497727e78c36c37e90639\AndroidManifest.xml:20:5-44
MERGED from [android.arch.lifecycle:viewmodel:1.1.1] C:\Users\USER\.gradle\caches\transforms-1\files-1.1\viewmodel-1.1.1.aar\cdab2efed9274a9ba3be9307442808af\AndroidManifest.xml:20:5-44
MERGED from [android.arch.lifecycle:viewmodel:1.1.1] C:\Users\USER\.gradle\caches\transforms-1\files-1.1\viewmodel-1.1.1.aar\cdab2efed9274a9ba3be9307442808af\AndroidManifest.xml:20:5-44
MERGED from [android.arch.lifecycle:livedata:1.1.1] C:\Users\USER\.gradle\caches\transforms-1\files-1.1\livedata-1.1.1.aar\9bd3435236247318c796cbea51ff388e\AndroidManifest.xml:20:5-44
MERGED from [android.arch.lifecycle:livedata:1.1.1] C:\Users\USER\.gradle\caches\transforms-1\files-1.1\livedata-1.1.1.aar\9bd3435236247318c796cbea51ff388e\AndroidManifest.xml:20:5-44
MERGED from [android.arch.lifecycle:livedata-core:1.1.1] C:\Users\USER\.gradle\caches\transforms-1\files-1.1\livedata-core-1.1.1.aar\3476e8e81b4089c0f2b9706e275dbf58\AndroidManifest.xml:20:5-44
MERGED from [android.arch.lifecycle:livedata-core:1.1.1] C:\Users\USER\.gradle\caches\transforms-1\files-1.1\livedata-core-1.1.1.aar\3476e8e81b4089c0f2b9706e275dbf58\AndroidManifest.xml:20:5-44
MERGED from [android.arch.core:runtime:1.1.1] C:\Users\USER\.gradle\caches\transforms-1\files-1.1\runtime-1.1.1.aar\f0566c4be9d93eb6111a1306c6e82efb\AndroidManifest.xml:20:5-44
MERGED from [android.arch.core:runtime:1.1.1] C:\Users\USER\.gradle\caches\transforms-1\files-1.1\runtime-1.1.1.aar\f0566c4be9d93eb6111a1306c6e82efb\AndroidManifest.xml:20:5-44
MERGED from [com.android.support:interpolator:28.0.0] C:\Users\USER\.gradle\caches\transforms-1\files-1.1\interpolator-28.0.0.aar\7d48f43440b867fce6a37d6245dfb914\AndroidManifest.xml:20:5-44
MERGED from [com.android.support:interpolator:28.0.0] C:\Users\USER\.gradle\caches\transforms-1\files-1.1\interpolator-28.0.0.aar\7d48f43440b867fce6a37d6245dfb914\AndroidManifest.xml:20:5-44
INJECTED from C:\Depot\daisy\UI\app\src\main\AndroidManifest.xml
INJECTED from C:\Depot\daisy\UI\app\src\main\AndroidManifest.xml
	android:targetSdkVersion
		INJECTED from C:\Depot\daisy\UI\app\src\main\AndroidManifest.xml
		ADDED from C:\Depot\daisy\UI\app\src\main\AndroidManifest.xml
		INJECTED from C:\Depot\daisy\UI\app\src\main\AndroidManifest.xml
	android:minSdkVersion
		INJECTED from C:\Depot\daisy\UI\app\src\main\AndroidManifest.xml
		ADDED from C:\Depot\daisy\UI\app\src\main\AndroidManifest.xml
		INJECTED from C:\Depot\daisy\UI\app\src\main\AndroidManifest.xml
